# This file uses centimeters as units for non-parametric coordinates.

mtllib SpineJointBlock.mtl
g default
v 1.223363 -1.273546 -0.387390
v 1.303362 -1.193817 -0.387390
v 0.218838 -0.414009 0.194341
v 0.410449 -0.223045 0.194341
v 0.058427 -0.253055 -0.314590
v 0.250039 -0.062091 -0.314590
v 1.156390 -1.206346 -0.599873
v 1.236389 -1.126617 -0.599873
v -1.228978 -1.273546 -0.387390
v -1.308978 -1.193817 -0.387390
v -0.224453 -0.414009 0.194341
v -0.416064 -0.223045 0.194341
v -0.064043 -0.253055 -0.314590
v -0.255654 -0.062091 -0.314590
v -1.162005 -1.206346 -0.599873
v -1.242005 -1.126617 -0.599873
vt 0.375000 0.000000
vt 0.625000 0.000000
vt 0.375000 0.250000
vt 0.625000 0.250000
vt 0.375000 0.500000
vt 0.625000 0.500000
vt 0.375000 0.750000
vt 0.625000 0.750000
vt 0.375000 1.000000
vt 0.625000 1.000000
vt 0.875000 0.000000
vt 0.875000 0.250000
vt 0.125000 0.000000
vt 0.125000 0.250000
vt 0.375000 0.000000
vt 0.625000 0.000000
vt 0.625000 0.250000
vt 0.375000 0.250000
vt 0.625000 0.500000
vt 0.375000 0.500000
vt 0.625000 0.750000
vt 0.375000 0.750000
vt 0.625000 1.000000
vt 0.375000 1.000000
vt 0.875000 0.000000
vt 0.875000 0.250000
vt 0.125000 0.000000
vt 0.125000 0.250000
vn 0.285055 -0.286022 0.914842
vn 0.285055 -0.286022 0.914842
vn 0.285055 -0.286022 0.914842
vn 0.285055 -0.286022 0.914842
vn -0.644574 0.646760 0.407708
vn -0.644574 0.646760 0.407707
vn -0.644574 0.646760 0.407707
vn -0.644574 0.646760 0.407707
vn -0.136248 0.136710 -0.981197
vn -0.136248 0.136710 -0.981197
vn -0.136248 0.136710 -0.981197
vn -0.136248 0.136710 -0.981197
vn 0.644574 -0.646760 -0.407708
vn 0.644574 -0.646760 -0.407708
vn 0.644574 -0.646760 -0.407708
vn 0.644574 -0.646760 -0.407708
vn 0.731446 0.681735 -0.014940
vn 0.731446 0.681735 -0.014940
vn 0.731446 0.681735 -0.014940
vn 0.731446 0.681735 -0.014940
vn -0.659690 -0.750956 -0.029569
vn -0.659690 -0.750956 -0.029569
vn -0.659690 -0.750956 -0.029569
vn -0.659690 -0.750956 -0.029569
vn -0.285055 -0.286022 0.914842
vn -0.285055 -0.286022 0.914842
vn -0.285055 -0.286022 0.914841
vn -0.285055 -0.286022 0.914841
vn 0.644574 0.646760 0.407708
vn 0.644574 0.646760 0.407707
vn 0.644574 0.646760 0.407707
vn 0.644574 0.646760 0.407707
vn 0.136248 0.136709 -0.981197
vn 0.136248 0.136709 -0.981197
vn 0.136248 0.136709 -0.981197
vn 0.136248 0.136709 -0.981197
vn -0.644574 -0.646761 -0.407708
vn -0.644574 -0.646761 -0.407708
vn -0.644574 -0.646761 -0.407708
vn -0.644574 -0.646761 -0.407708
vn -0.731446 0.681735 -0.014940
vn -0.731446 0.681735 -0.014940
vn -0.731446 0.681735 -0.014940
vn -0.731446 0.681735 -0.014940
vn 0.659690 -0.750956 -0.029568
vn 0.659690 -0.750956 -0.029568
vn 0.659690 -0.750956 -0.029569
vn 0.659690 -0.750956 -0.029568
s off
g pCube4
usemtl initialShadingGroup
f 1/1/1 2/2/2 4/4/3 3/3/4
f 3/3/5 4/4/6 6/6/7 5/5/8
f 5/5/9 6/6/10 8/8/11 7/7/12
f 7/7/13 8/8/14 2/10/15 1/9/16
f 2/2/17 8/11/18 6/12/19 4/4/20
f 7/13/21 1/1/22 3/3/23 5/14/24
f 9/15/25 11/18/26 12/17/27 10/16/28
f 11/18/29 13/20/30 14/19/31 12/17/32
f 13/20/33 15/22/34 16/21/35 14/19/36
f 15/22/37 9/24/38 10/23/39 16/21/40
f 10/16/41 12/17/42 14/26/43 16/25/44
f 15/27/45 13/28/46 11/18/47 9/15/48
g default
v -0.141148 -0.289696 0.967347
v 0.141148 -0.289696 0.967347
v -0.141148 0.048583 0.967347
v 0.141148 0.048583 0.967347
v -0.500000 0.500000 -0.500000
v 0.500000 0.500000 -0.500000
v -0.500000 -0.500000 -0.500000
v 0.500000 -0.500000 -0.500000
v 0.500000 0.500000 0.147931
v -0.500000 0.500000 0.147931
v -0.500000 -0.500000 0.147931
v 0.500000 -0.500000 0.147931
v 0.207615 0.500000 -0.500000
v 0.207615 -0.500000 -0.500000
v 0.207615 -0.500000 0.147931
v 0.058609 -0.289696 0.967347
v 0.058609 0.048583 0.967347
v 0.207615 0.500000 0.147931
v -0.185342 0.500000 -0.500000
v -0.185342 -0.500000 -0.500000
v -0.185342 -0.500000 0.147931
v -0.052322 -0.289696 0.967347
v -0.052322 0.048583 0.967347
v -0.185342 0.500000 0.147931
v -0.530846 0.201332 -1.214499
v -0.413013 0.201332 -1.214499
v -0.413013 -0.201332 -1.214499
v -0.530846 -0.201332 -1.214499
v 0.421354 0.201332 -1.214499
v 0.530846 0.201332 -1.214499
v 0.530846 -0.201332 -1.214499
v 0.421354 -0.201332 -1.214499
vt 0.375000 0.000000
vt 0.625000 0.000000
vt 0.375000 0.250000
vt 0.625000 0.250000
vt 0.375000 0.500000
vt 0.625000 0.500000
vt 0.375000 0.750000
vt 0.625000 0.750000
vt 0.375000 1.000000
vt 0.625000 1.000000
vt 0.875000 0.000000
vt 0.875000 0.250000
vt 0.125000 0.000000
vt 0.125000 0.250000
vt 0.625000 0.389608
vt 0.764608 0.250000
vt 0.235392 0.250000
vt 0.375000 0.389608
vt 0.235392 0.000000
vt 0.375000 0.860392
vt 0.625000 0.860392
vt 0.764608 0.000000
vt 0.551904 0.500000
vt 0.551904 0.750000
vt 0.551904 0.860392
vt 0.551904 0.000000
vt 0.551904 1.000000
vt 0.551904 0.250000
vt 0.551904 0.389608
vt 0.453664 0.500000
vt 0.453664 0.750000
vt 0.453664 0.860392
vt 0.453664 0.000000
vt 0.453664 1.000000
vt 0.453664 0.250000
vt 0.453664 0.389608
vt 0.375000 0.500000
vt 0.453664 0.500000
vt 0.453664 0.750000
vt 0.375000 0.750000
vt 0.551904 0.500000
vt 0.625000 0.500000
vt 0.625000 0.750000
vt 0.551904 0.750000
vn 0.000001 0.000000 1.000000
vn 0.000000 0.000000 1.000000
vn 0.000000 0.000000 1.000000
vn 0.000001 0.000000 1.000000
vn 0.000000 0.875882 0.482525
vn 0.000000 0.875882 0.482525
vn 0.000000 0.971204 0.238251
vn 0.000000 0.978415 0.206651
vn 0.000000 0.000000 -1.000000
vn 0.000000 0.000000 -1.000000
vn 0.000000 0.000000 -1.000000
vn 0.000000 0.000000 -1.000000
vn 0.000000 -0.995365 0.096171
vn -0.000000 -0.993540 0.113482
vn -0.000000 -0.968608 0.248594
vn 0.000000 -0.968608 0.248594
vn 0.916011 0.000000 0.401154
vn 0.983561 0.000000 0.180576
vn 0.986931 0.000000 0.161142
vn 0.916011 0.000000 0.401154
vn -0.983561 0.000000 0.180576
vn -0.916011 0.000000 0.401154
vn -0.916011 0.000000 0.401154
vn -0.986931 0.000000 0.161142
vn 0.000000 0.995945 -0.089960
vn 0.000000 0.983702 -0.179804
vn -0.999875 0.000000 0.015822
vn -0.999875 0.000000 0.015822
vn 0.000000 -0.983702 -0.179804
vn 0.000000 -0.995945 -0.089960
vn 0.999875 0.000000 0.015822
vn 0.999875 0.000000 0.015822
vn 0.000000 0.000000 -1.000000
vn 0.000000 0.000000 -1.000000
vn 0.000000 0.000000 -1.000000
vn 0.000000 0.000000 -1.000000
vn -0.000000 -0.993578 0.113148
vn 0.000000 -0.996122 -0.087977
vn 0.000000 -0.983702 -0.179804
vn 0.000000 -0.995365 0.096171
vn -0.000000 -0.968608 0.248594
vn 0.000000 -0.968608 0.248594
vn -0.000000 0.000000 1.000000
vn -0.000000 0.000000 1.000000
vn -0.000001 0.000000 1.000000
vn -0.000001 0.000000 1.000000
vn 0.000000 0.971352 0.237645
vn 0.000000 0.875882 0.482525
vn 0.000000 0.875882 0.482525
vn 0.000000 0.978415 0.206651
vn 0.000000 0.996122 -0.087977
vn 0.000000 0.983702 -0.179804
vn 0.000000 0.000000 -1.000000
vn 0.000000 0.000000 -1.000000
vn 0.000000 0.000000 -1.000000
vn 0.000000 0.000000 -1.000000
vn 0.000000 0.922636 -0.385671
vn 0.000000 0.922636 -0.385671
vn 0.952798 0.000000 -0.303604
vn 0.952798 0.000000 -0.303604
vn 0.952798 0.000000 -0.303604
vn 0.952798 0.000000 -0.303604
vn 0.000000 -0.922636 -0.385671
vn 0.000000 -0.922636 -0.385671
vn -0.999069 0.000000 0.043131
vn -0.999069 0.000000 0.043131
vn 0.000000 0.922636 -0.385671
vn 0.000000 0.922636 -0.385671
vn 0.999069 0.000000 0.043131
vn 0.999069 0.000000 0.043131
vn 0.000000 -0.922636 -0.385671
vn 0.000000 -0.922636 -0.385671
vn -0.958051 0.000000 -0.286597
vn -0.958051 0.000000 -0.286597
vn -0.958051 0.000000 -0.286597
vn -0.958051 0.000000 -0.286597
s 1
g pCube3
usemtl initialShadingGroup
f 17/29/49 38/61/50 39/63/51 19/31/52
s 2
f 19/31/53 39/63/54 40/64/55 26/46/56
s off
f 41/65/57 42/66/58 43/67/59 44/68/60
s 3
f 27/48/61 37/60/62 38/62/63 17/37/64
s 4
f 18/30/65 28/50/66 25/44/67 20/32/68
s 5
f 27/47/69 17/29/70 19/31/71 26/45/72
s 2
f 26/46/56 40/64/55 35/58/73 21/33/74
s 5
f 23/41/75 27/47/69 26/45/72 21/42/76
s 3
f 23/35/77 36/59/78 37/60/62 27/48/61
s 4
f 25/44/67 28/50/66 24/39/79 22/40/80
s off
f 45/69/81 46/70/82 47/71/83 48/72/84
s 3
f 31/53/85 30/52/86 24/36/87 28/49/88
f 32/55/89 31/53/85 28/49/88 18/38/90
s 1
f 33/56/91 32/54/92 18/30/93 20/32/94
s 2
f 34/57/95 33/56/96 20/32/97 25/43/98
f 29/51/99 34/57/95 25/43/98 22/34/100
s off
f 35/58/101 29/51/102 30/52/103 36/59/104
s 3
f 37/60/62 36/59/78 30/52/86 31/53/85
f 38/62/63 37/60/62 31/53/85 32/55/89
s 1
f 39/63/51 38/61/50 32/54/92 33/56/91
s 2
f 40/64/55 39/63/54 33/56/96 34/57/95
f 35/58/73 40/64/55 34/57/95 29/51/99
f 21/33/74 35/58/73 42/66/105 41/65/106
s off
f 35/58/107 36/59/108 43/67/109 42/66/110
s 3
f 36/59/78 23/35/77 44/68/111 43/67/112
s 5
f 23/35/75 21/33/76 41/65/113 44/68/114
s 2
f 29/51/99 22/34/100 46/70/115 45/69/116
s 4
f 22/34/80 24/36/79 47/71/117 46/70/118
s 3
f 24/36/87 30/52/86 48/72/119 47/71/120
s off
f 30/52/121 29/51/122 45/69/123 48/72/124
